datapath/imb.vcd
$date
	Thu Nov 14 16:43:04 2019
$end
$version
	Icarus Verilog
$end
$timescale
	1s
$end
$scope module testbench $end
$var reg 1 ! clk $end
$var reg 1 " reset $end
$scope module test $end
$var wire 1 ! clk $end
$var wire 1 " reset $end
$var wire 32 # writedata [31:0] $end
$var wire 1 $ zero_to_mux $end
$var wire 1 % zero $end
$var wire 5 & writereg [4:0] $end
$var wire 32 ' sign_extended [31:0] $end
$var wire 32 ( shift_left_branch [31:0] $end
$var wire 32 ) read_data2 [31:0] $end
$var wire 32 * read_data1 [31:0] $end
$var wire 32 + mux_branch_out [31:0] $end
$var wire 32 , mux_alu [31:0] $end
$var wire 32 - branch_pc [31:0] $end
$var wire 4 . alucontrol [3:0] $end
$var wire 32 / alu_result [31:0] $end
$var wire 32 0 address_final [31:0] $end
$var wire 1 1 RegWrite $end
$var wire 1 2 RegDst $end
$var wire 32 3 Out_PC [31:0] $end
$var wire 1 4 MemtoReg $end
$var wire 2 5 MemWrite [1:0] $end
$var wire 2 6 MemRead [1:0] $end
$var wire 32 7 Jump_address [31:0] $end
$var wire 1 8 Jump $end
$var wire 32 9 Instruction [31:0] $end
$var wire 32 : DM_out [31:0] $end
$var wire 32 ; DM_mux [31:0] $end
$var wire 1 < Branch $end
$var wire 1 = ALUsrc $end
$var wire 4 > ALUOP [3:0] $end
$scope module call_ALU $end
$var wire 32 ? entr2 [31:0] $end
$var wire 32 @ entr1 [31:0] $end
$var wire 4 A alu_ctrl [3:0] $end
$var reg 32 B alu_result [31:0] $end
$var reg 1 % zero $end
$upscope $end
$scope module call_Control $end
$var wire 6 C Instruction [5:0] $end
$var wire 1 ! clk $end
$var reg 4 D ALUOp [3:0] $end
$var reg 1 = ALUSrc $end
$var reg 1 < Branch $end
$var reg 1 8 Jump $end
$var reg 2 E MemRead [1:0] $end
$var reg 2 F MemWrite [1:0] $end
$var reg 1 4 MemtoReg $end
$var reg 1 2 RegDst $end
$var reg 1 1 RegWrite $end
$upscope $end
$scope module call_IM $end
$var wire 32 G pc [31:0] $end
$var reg 32 H out [31:0] $end
$upscope $end
$scope module call_RF $end
$var wire 1 ! clk $end
$var wire 5 I readreg1 [4:0] $end
$var wire 5 J readreg2 [4:0] $end
$var wire 1 1 regwrite $end
$var wire 32 K writedata [31:0] $end
$var wire 5 L writereg [4:0] $end
$var reg 32 M read_data1 [31:0] $end
$var reg 32 N read_data2 [31:0] $end
$upscope $end
$scope module call_Signextend $end
$var wire 16 O a [15:0] $end
$var reg 32 P b [31:0] $end
$upscope $end
$scope module call_adder $end
$var wire 32 Q y [31:0] $end
$var wire 32 R b [31:0] $end
$var wire 32 S a [31:0] $end
$upscope $end
$scope module call_adder_pc $end
$var wire 32 T pc [31:0] $end
$var reg 32 U pc_add [31:0] $end
$upscope $end
$scope module call_alu_control $end
$var wire 4 V aluOp [3:0] $end
$var wire 6 W func [5:0] $end
$var reg 4 X out [3:0] $end
$upscope $end
$scope module call_and $end
$var wire 1 < a $end
$var wire 1 % b $end
$var wire 1 $ out $end
$upscope $end
$scope module call_data_memory $end
$var wire 32 Y address [31:0] $end
$var wire 1 ! clk $end
$var wire 2 Z memread [1:0] $end
$var wire 2 [ memwrite [1:0] $end
$var wire 32 \ writedata [31:0] $end
$var reg 32 ] read_data [31:0] $end
$upscope $end
$scope module call_mux2_1_5bits $end
$var wire 5 ^ a [4:0] $end
$var wire 5 _ b [4:0] $end
$var wire 1 2 sel $end
$var wire 5 ` out [4:0] $end
$upscope $end
$scope module call_mux2_1_branch $end
$var wire 32 a b [31:0] $end
$var wire 1 $ sel $end
$var wire 32 b out [31:0] $end
$var wire 32 c a [31:0] $end
$upscope $end
$scope module call_mux_data_memory $end
$var wire 32 d a [31:0] $end
$var wire 32 e b [31:0] $end
$var wire 1 4 sel $end
$var wire 32 f out [31:0] $end
$upscope $end
$scope module call_pc $end
$var wire 1 ! clk $end
$var wire 32 g d [31:0] $end
$var wire 1 " reset $end
$var reg 32 h q [31:0] $end
$upscope $end
$scope module call_shift_branch $end
$var wire 32 i imm [31:0] $end
$var reg 32 j branch_address [31:0] $end
$upscope $end
$scope module call_shift_jump $end
$var wire 4 k PC [3:0] $end
$var wire 26 l imm [25:0] $end
$var reg 32 m jump [31:0] $end
$var reg 2 n shift [1:0] $end
$upscope $end
$scope module mux_antes_del_alu $end
$var wire 32 o a [31:0] $end
$var wire 32 p b [31:0] $end
$var wire 1 q sel $end
$var wire 32 r out [31:0] $end
$upscope $end
$upscope $end
$upscope $end
$enddefinitions $end
#0
$dumpvars
b100100000100000 r
1q
bx p
b100100000100000 o
b0 n
b101001011010010000010000000 m
b1010010110100100000100000 l
b0 k
b10010000010000000 j
b100100000100000 i
b0 h
b100 g
bx f
bx e
bx d
b0 c
b10010000010000000 b
b10010000010000000 a
b1011 `
b1001 _
b1011 ^
bx ]
bx \
b0 [
b0 Z
bx Y
b0 X
b100000 W
b0 V
b100 U
b0 T
b0 S
b10010000010000000 R
b10010000010000000 Q
b100100000100000 P
b100100000100000 O
bx N
bx M
b1011 L
bz K
b1011 J
b1010 I
b1010010110100100000100000 H
b0 G
b0 F
b0 E
b0 D
b0 C
bx B
b0 A
bx @
b100100000100000 ?
b0 >
0=
0<
bx ;
bx :
b1010010110100100000100000 9
08
b101001011010010000010000000 7
b0 6
b0 5
04
b0 3
12
11
b100 0
bx /
b0 .
b10010000010000000 -
b100100000100000 ,
b10010000010000000 +
bx *
bx )
b10010000010000000 (
b100100000100000 '
b1011 &
0%
0$
bz #
1"
1!
$end
#1
0"
0!
#2
b1000 0
b1000 U
b1000 g
b100100000100111 ;
b100100000100111 f
b100100000100111 /
b100100000100111 B
b100100000100111 Y
b100100000100111 e
b10010000010000100 +
b10010000010000100 b
b1 )
b1 N
b1 \
b1 p
b111 *
b111 @
b111 M
b10010000010000100 -
b10010000010000100 Q
b10010000010000100 a
b100 3
b100 G
b100 S
b100 T
b100 c
b100 h
1!
#3
0!
#4
b11111111111111111111111111111100 (
b11111111111111111111111111111100 R
b11111111111111111111111111111100 j
b110 ;
b110 f
b110 /
b110 B
b110 Y
b110 e
b11111111111111111111111111111111 ,
b11111111111111111111111111111111 ?
b11111111111111111111111111111111 r
b101001001111111111111111100 7
b101001001111111111111111100 m
b11111111111111111111111111111111 '
b11111111111111111111111111111111 P
b11111111111111111111111111111111 i
b11111111111111111111111111111111 o
b11111 &
b11111 L
b11111 `
1=
b100 >
b100 D
b100 V
02
b1010010011111111111111111 l
b111111 W
b1111111111111111 O
b1001 J
b11111 _
b1001 ^
b1000 C
b100001010010011111111111111111 9
b100001010010011111111111111111 H
b1100 0
b1100 U
b1100 g
b100 +
b100 b
b100 -
b100 Q
b100 a
b1000 3
b1000 G
b1000 S
b1000 T
b1000 c
b1000 h
1!
#5
0!
#6
b10010000010001000 (
b10010000010001000 R
b10010000010001000 j
b1 .
b1 A
b1 X
b11111111111111111011011111100101 ;
b11111111111111111011011111100101 f
b11111111111111111011011111100101 /
b11111111111111111011011111100101 B
b11111111111111111011011111100101 Y
b11111111111111111011011111100101 e
b100100000100010 ,
b100100000100010 ?
b100100000100010 r
b101001011010010000010001000 7
b101001011010010000010001000 m
b100100000100010 '
b100100000100010 P
b100100000100010 i
b100100000100010 o
b1011 &
b1011 L
b1011 `
0=
b0 >
b0 D
b0 V
12
b1010010110100100000100010 l
b100010 W
b100100000100010 O
b1011 J
b1001 _
b1011 ^
b0 C
b1010010110100100000100010 9
b1010010110100100000100010 H
b10000 0
b10000 U
b10000 g
b10010000010010100 +
b10010000010010100 b
b100000 )
b100000 N
b100000 \
b100000 p
b10010000010010100 -
b10010000010010100 Q
b10010000010010100 a
b1100 3
b1100 G
b1100 S
b1100 T
b1100 c
b1100 h
1!
#7
0!
#8
b10010000010010000 (
b10010000010010000 R
b10010000010010000 j
b10 .
b10 A
b10 X
b100 ;
b100 f
b100 /
b100 B
b100 Y
b100 e
b100100000100100 ,
b100100000100100 ?
b100100000100100 r
b101001011010010000010010000 7
b101001011010010000010010000 m
b100100000100100 '
b100100000100100 P
b100100000100100 i
b100100000100100 o
b1010010110100100000100100 l
b100100 W
b100100000100100 O
b1010010110100100000100100 9
b1010010110100100000100100 H
b10100 0
b10100 U
b10100 g
b10010000010100000 +
b10010000010100000 b
b1 )
b1 N
b1 \
b1 p
b10010000010100000 -
b10010000010100000 Q
b10010000010100000 a
b10000 3
b10000 G
b10000 S
b10000 T
b10000 c
b10000 h
1!
#9
0!
#10
b11111111111111111111111111111100 (
b11111111111111111111111111111100 R
b11111111111111111111111111111100 j
b111 ;
b111 f
b111 /
b111 B
b111 Y
b111 e
b11111111111111111111111111111111 ,
b11111111111111111111111111111111 ?
b11111111111111111111111111111111 r
b101001001111111111111111100 7
b101001001111111111111111100 m
b11111111111111111111111111111111 '
b11111111111111111111111111111111 P
b11111111111111111111111111111111 i
b11111111111111111111111111111111 o
b11111 &
b11111 L
b11111 `
1=
b1100 >
b1100 D
b1100 V
02
b1010010011111111111111111 l
b111111 W
b1111111111111111 O
b1001 J
b11111 _
b1001 ^
b1100 C
b110001010010011111111111111111 9
b110001010010011111111111111111 H
b11000 0
b11000 U
b11000 g
b10000 +
b10000 b
b10000 -
b10000 Q
b10000 a
b10100 3
b10100 G
b10100 S
b10100 T
b10100 c
b10100 h
1!
#11
0!
#12
b11111111111111111111111111111111 ;
b11111111111111111111111111111111 f
b11111111111111111111111111111111 /
b11111111111111111111111111111111 B
b11111111111111111111111111111111 Y
b11111111111111111111111111111111 e
b100 .
b100 A
b100 X
b1110 >
b1110 D
b1110 V
b1101 C
b110101010010011111111111111111 9
b110101010010011111111111111111 H
b11100 0
b11100 U
b11100 g
b10100 +
b10100 b
b100000 )
b100000 N
b100000 \
b100000 p
b10100 -
b10100 Q
b10100 a
b11000 3
b11000 G
b11000 S
b11000 T
b11000 c
b11000 h
1!
#13
0!
#14
b10010000010011100 (
b10010000010011100 R
b10010000010011100 j
b11 .
b11 A
b11 X
b11111111111111111011011111011000 ;
b11111111111111111011011111011000 f
b11111111111111111011011111011000 /
b11111111111111111011011111011000 B
b11111111111111111011011111011000 Y
b11111111111111111011011111011000 e
b100100000100111 ,
b100100000100111 ?
b100100000100111 r
b101001011010010000010011100 7
b101001011010010000010011100 m
b100100000100111 '
b100100000100111 P
b100100000100111 i
b100100000100111 o
b1011 &
b1011 L
b1011 `
0=
b0 >
b0 D
b0 V
12
b1010010110100100000100111 l
b100111 W
b100100000100111 O
b1011 J
b1001 _
b1011 ^
b0 C
b1010010110100100000100111 9
b1010010110100100000100111 H
b100000 0
b100000 U
b100000 g
b10010000010111000 +
b10010000010111000 b
b10010000010111000 -
b10010000010111000 Q
b10010000010111000 a
b11100 3
b11100 G
b11100 S
b11100 T
b11100 c
b11100 h
1!
#15
0!
#16
b100100000100111 ;
b100100000100111 f
b100100000100111 /
b100100000100111 B
b100100000100111 Y
b100100000100111 e
b10010000010010100 (
b10010000010010100 R
b10010000010010100 j
b100 .
b100 A
b100 X
b100100000100101 ,
b100100000100101 ?
b100100000100101 r
b101001011010010000010010100 7
b101001011010010000010010100 m
b100100000100101 '
b100100000100101 P
b100100000100101 i
b100100000100101 o
b1010010110100100000100101 l
b100101 W
b100100000100101 O
b1010010110100100000100101 9
b1010010110100100000100101 H
b100100 0
b100100 U
b100100 g
b10010000010110100 +
b10010000010110100 b
b1 )
b1 N
b1 \
b1 p
b10010000010110100 -
b10010000010110100 Q
b10010000010110100 a
b100000 3
b100000 G
b100000 S
b100000 T
b100000 c
b100000 h
1!
#17
0!
#18
b11111111111111111111111111111100 (
b11111111111111111111111111111100 R
b11111111111111111111111111111100 j
b11111111111111111111111111111111 /
b11111111111111111111111111111111 B
b11111111111111111111111111111111 Y
b11111111111111111111111111111111 e
bx ;
bx f
b11111111111111111111111111111111 ,
b11111111111111111111111111111111 ?
b11111111111111111111111111111111 r
b101111111111111111111100 7
b101111111111111111111100 m
b11111111111111111111111111111111 '
b11111111111111111111111111111111 P
b11111111111111111111111111111111 i
b11111111111111111111111111111111 o
bx1111 &
bx1111 L
bx1111 `
01
x=
bx >
bx D
bx V
x4
18
x2
b1011111111111111111111 l
b111111 W
b1111111111111111 O
b1111 J
b1 I
b11111 _
b1111 ^
b10 C
b1000001011111111111111111111 9
b1000001011111111111111111111 H
b101000 0
b101000 U
b101000 g
b100000 +
b100000 b
b100000 -
b100000 Q
b100000 a
b100100 3
b100100 G
b100100 S
b100100 T
b100100 c
b100100 h
1!
#19
0!
#20
b10000000010001000 (
b10000000010001000 R
b10000000010001000 j
b100000000100010 /
b100000000100010 B
b100000000100010 Y
b100000000100010 e
b100000000100010 ;
b100000000100010 f
b100000000100010 ,
b100000000100010 ?
b100000000100010 r
b1001010000000010001000 7
b1001010000000010001000 m
b100000000100010 '
b100000000100010 P
b100000000100010 i
b100000000100010 o
b1000 &
b1000 L
b1000 `
11
1=
b1 >
b1 D
b1 V
04
08
02
b10010100000000100010 l
b100010 W
b100000000100010 O
b1001 J
b0 I
b1000 _
b1001 ^
b1111 C
b111100000010010100000000100010 9
b111100000010010100000000100010 H
b101100 0
b101100 U
b101100 g
b10000000010110000 +
b10000000010110000 b
b0 )
b0 N
b0 \
b0 p
b10 *
b10 @
b10 M
b10000000010110000 -
b10000000010110000 Q
b10000000010110000 a
b101000 3
b101000 G
b101000 S
b101000 T
b101000 c
b101000 h
1!
#21
0!
#22
b0 (
b0 R
b0 j
b110 .
b110 A
b110 X
b10 ;
b10 f
b10 /
b10 B
b10 Y
b10 e
b0 ,
b0 ?
b0 r
b100101010000000000000000000 7
b100101010000000000000000000 m
b0 '
b0 P
b0 i
b0 o
b0 &
b0 L
b0 `
b101 >
b101 D
b101 V
1<
b1001010100000000000000000 l
b0 W
b0 O
b1010 J
b1001 I
b0 _
b1010 ^
b100 C
b10001001010100000000000000000 9
b10001001010100000000000000000 H
b110000 0
b110000 U
b110000 g
b101100 +
b101100 b
b100000 )
b100000 N
b100000 \
b100000 p
b101100 -
b101100 Q
b101100 a
b101100 3
b101100 G
b101100 S
b101100 T
b101100 c
b101100 h
1!
#23
0!
#24
1$
1%
b111 .
b111 A
b111 X
b111 >
b111 D
b111 V
b101 C
b10101001010100000000000000000 9
b10101001010100000000000000000 H
b110100 0
b110100 U
b110100 g
b110000 +
b110000 b
b111 )
b111 N
b111 \
b111 p
b100000 *
b100000 @
b100000 M
b110000 -
b110000 Q
b110000 a
b110000 3
b110000 G
b110000 S
b110000 T
b110000 c
b110000 h
1!
#25
0!
#26
b100100001000000000000000000 7
b100100001000000000000000000 m
b1001000010000000000000000 l
b1 J
b1 ^
b1 C
b101001000010000000000000000 9
b101001000010000000000000000 H
b111000 0
b111000 U
b111000 g
b110100 +
b110100 b
b110100 -
b110100 Q
b110100 a
b110100 3
b110100 G
b110100 S
b110100 T
b110100 c
b110100 h
1!
#27
0!
#28
b1 ;
b1 f
b1 /
b1 B
b1 Y
b1 e
b101 .
b101 A
b101 X
0$
b101001001000000000000000000 7
b101001001000000000000000000 m
b10 >
b10 D
b10 V
0<
b1010010010000000000000000 l
b1001 J
b1010 I
b1001 ^
b1010 C
b101001010010010000000000000000 9
b101001010010010000000000000000 H
b111100 0
b111100 U
b111100 g
b111000 +
b111000 b
b10 )
b10 N
b10 \
b10 p
b111000 -
b111000 Q
b111000 a
b111000 3
b111000 G
b111000 S
b111000 T
b111000 c
b111000 h
1!
#29
0!
#30
b10010000010101000 (
b10010000010101000 R
b10010000010101000 j
b0 ;
b0 f
b0 /
b0 B
b0 Y
b0 e
b100100000101010 ,
b100100000101010 ?
b100100000101010 r
b101001011010010000010101000 7
b101001011010010000010101000 m
b100100000101010 '
b100100000101010 P
b100100000101010 i
b100100000101010 o
b1011 &
b1011 L
b1011 `
0=
b0 >
b0 D
b0 V
12
b1010010110100100000101010 l
b101010 W
b100100000101010 O
b1011 J
b1001 _
b1011 ^
b0 C
b1010010110100100000101010 9
b1010010110100100000101010 H
b1000000 0
b1000000 U
b1000000 g
b10010000011100100 +
b10010000011100100 b
b100000 )
b100000 N
b100000 \
b100000 p
b111 *
b111 @
b111 M
b10010000011100100 -
b10010000011100100 Q
b10010000011100100 a
b111100 3
b111100 G
b111100 S
b111100 T
b111100 c
b111100 h
1!
#31
0!
#32
b0 (
b0 R
b0 j
b0 .
b0 A
b0 X
b111 /
b111 B
b111 Y
b111 e
bx ;
bx f
b0 ,
b0 ?
b0 r
b1001010001000000000000000000 7
b1001010001000000000000000000 m
b0 '
b0 P
b0 i
b0 o
b10001 &
b10001 L
b10001 `
1=
b100 >
b100 D
b100 V
14
b1 6
b1 E
b1 Z
b10010100010000000000000000 l
b0 W
b0 O
b10001 J
b10010 I
b0 _
b10001 ^
b100011 C
b10001110010100010000000000000000 9
b10001110010100010000000000000000 H
b1000100 0
b1000100 U
b1000100 g
b1000000 +
b1000000 b
b1 )
b1 N
b1 \
b1 p
b1000000 -
b1000000 Q
b1000000 a
b1000000 3
b1000000 G
b1000000 S
b1000000 T
b1000000 c
b1000000 h
1!
#33
0!
#34
bx000x &
bx000x L
bx000x `
01
b1 5
b1 F
b1 [
x4
b0 6
b0 E
b0 Z
x2
b101011 C
b10101110010100010000000000000000 9
b10101110010100010000000000000000 H
b1001000 0
b1001000 U
b1001000 g
b0x0000000000000000000000000 ;
b0x0000000000000000000000000 f
b0 /
b0 B
b0 Y
b0 e
b1000100 +
b1000100 b
b10000000000000000000000000 :
b10000000000000000000000000 ]
b10000000000000000000000000 d
b0 )
b0 N
b0 \
b0 p
b0 *
b0 @
b0 M
b1000100 -
b1000100 Q
b1000100 a
b1000100 3
b1000100 G
b1000100 S
b1000100 T
b1000100 c
b1000100 h
1!
#35
0!
#36
b10 5
b10 F
b10 [
b101000 C
b10100010010100010000000000000000 9
b10100010010100010000000000000000 H
b1001100 0
b1001100 U
b1001100 g
b1001000 +
b1001000 b
b1001000 -
b1001000 Q
b1001000 a
b1001000 3
b1001000 G
b1001000 S
b1001000 T
b1001000 c
b1001000 h
1!
#37
0!
#38
b10000000000000000000000000 ;
b10000000000000000000000000 f
b10001 &
b10001 L
b10001 `
11
b0 5
b0 F
b0 [
14
b10 6
b10 E
b10 Z
12
b100000 C
b10000010010100010000000000000000 9
b10000010010100010000000000000000 H
b1010000 0
b1010000 U
b1010000 g
b1001100 +
b1001100 b
b1001100 -
b1001100 Q
b1001100 a
b1001100 3
b1001100 G
b1001100 S
b1001100 T
b1001100 c
b1001100 h
1!
#39
0!
#40
bx000x &
bx000x L
bx000x `
01
b11 5
b11 F
b11 [
x4
b0 6
b0 E
b0 Z
x2
b101001 C
b10100110010100010000000000000000 9
b10100110010100010000000000000000 H
b1010100 0
b1010100 U
b1010100 g
bx00000000 ;
bx00000000 f
b1010000 +
b1010000 b
b11111111111111111111111100000000 :
b11111111111111111111111100000000 ]
b11111111111111111111111100000000 d
b1010000 -
b1010000 Q
b1010000 a
b1010000 3
b1010000 G
b1010000 S
b1010000 T
b1010000 c
b1010000 h
1!
#41
0!
#42
b11111111111111111111111100000000 ;
b11111111111111111111111100000000 f
b10001 &
b10001 L
b10001 `
11
b0 5
b0 F
b0 [
14
b11 6
b11 E
b11 Z
12
b100001 C
b10000110010100010000000000000000 9
b10000110010100010000000000000000 H
b1011000 0
b1011000 U
b1011000 g
b1010100 +
b1010100 b
b1010100 -
b1010100 Q
b1010100 a
b1010100 3
b1010100 G
b1010100 S
b1010100 T
b1010100 c
b1010100 h
1!
