datapath/imb.vcd
$date
	Thu Nov 14 10:27:01 2019
$end
$version
	Icarus Verilog
$end
$timescale
	1s
$end
$scope module testbench $end
$var reg 1 ! clk $end
$var reg 1 " reset $end
$scope module test $end
$var wire 1 # ALUSrc $end
$var wire 1 ! clk $end
$var wire 1 " reset $end
$var wire 32 $ writedata [31:0] $end
$var wire 1 % zero_to_mux $end
$var wire 1 & zero $end
$var wire 5 ' writereg [4:0] $end
$var wire 32 ( sign_extended [31:0] $end
$var wire 32 ) shift_left_branch [31:0] $end
$var wire 32 * read_data2 [31:0] $end
$var wire 32 + read_data1 [31:0] $end
$var wire 32 , mux_branch_out [31:0] $end
$var wire 32 - mux_alu [31:0] $end
$var wire 32 . branch_pc [31:0] $end
$var wire 4 / alucontrol [3:0] $end
$var wire 32 0 alu_result [31:0] $end
$var wire 32 1 address_final [31:0] $end
$var wire 1 2 RegWrite $end
$var wire 1 3 RegDst $end
$var wire 32 4 Out_PC [31:0] $end
$var wire 1 5 MemtoReg $end
$var wire 2 6 MemWrite [1:0] $end
$var wire 2 7 MemRead [1:0] $end
$var wire 32 8 Jump_address [31:0] $end
$var wire 1 9 Jump $end
$var wire 32 : Instruction [31:0] $end
$var wire 32 ; DM_out [31:0] $end
$var wire 32 < DM_mux [31:0] $end
$var wire 1 = Branch $end
$var wire 1 > ALUsrc $end
$var wire 2 ? ALUOP [1:0] $end
$scope module call_ALU $end
$var wire 32 @ entr2 [31:0] $end
$var wire 32 A entr1 [31:0] $end
$var wire 4 B alu_ctrl [3:0] $end
$var reg 32 C alu_result [31:0] $end
$var reg 1 & zero $end
$upscope $end
$scope module call_Control $end
$var wire 6 D Instruction [5:0] $end
$var wire 1 ! clk $end
$var reg 2 E ALUOp [1:0] $end
$var reg 1 > ALUSrc $end
$var reg 1 = Branch $end
$var reg 1 9 Jump $end
$var reg 2 F MemRead [1:0] $end
$var reg 2 G MemWrite [1:0] $end
$var reg 1 5 MemtoReg $end
$var reg 1 3 RegDst $end
$var reg 1 2 RegWrite $end
$upscope $end
$scope module call_IM $end
$var wire 32 H pc [31:0] $end
$var reg 32 I out [31:0] $end
$upscope $end
$scope module call_RF $end
$var wire 1 ! clk $end
$var wire 5 J readreg1 [4:0] $end
$var wire 5 K readreg2 [4:0] $end
$var wire 1 2 regwrite $end
$var wire 32 L writedata [31:0] $end
$var wire 5 M writereg [4:0] $end
$var reg 32 N read_data1 [31:0] $end
$var reg 32 O read_data2 [31:0] $end
$upscope $end
$scope module call_Signextend $end
$var wire 16 P a [15:0] $end
$var reg 32 Q b [31:0] $end
$upscope $end
$scope module call_adder $end
$var wire 32 R y [31:0] $end
$var wire 32 S b [31:0] $end
$var wire 32 T a [31:0] $end
$upscope $end
$scope module call_adder_pc $end
$var wire 32 U pc [31:0] $end
$var reg 32 V pc_add [31:0] $end
$upscope $end
$scope module call_alu_control $end
$var wire 2 W aluOp [1:0] $end
$var wire 6 X func [5:0] $end
$var reg 4 Y out [3:0] $end
$upscope $end
$scope module call_and $end
$var wire 1 = a $end
$var wire 1 & b $end
$var wire 1 % out $end
$upscope $end
$scope module call_data_memory $end
$var wire 32 Z address [31:0] $end
$var wire 1 ! clk $end
$var wire 2 [ memread [1:0] $end
$var wire 2 \ memwrite [1:0] $end
$var wire 32 ] writedata [31:0] $end
$var reg 32 ^ read_data [31:0] $end
$upscope $end
$scope module call_mux2_1_5bits $end
$var wire 5 _ a [4:0] $end
$var wire 5 ` b [4:0] $end
$var wire 1 3 sel $end
$var wire 5 a out [4:0] $end
$upscope $end
$scope module call_mux2_1_branch $end
$var wire 32 b b [31:0] $end
$var wire 1 % sel $end
$var wire 32 c out [31:0] $end
$var wire 32 d a [31:0] $end
$upscope $end
$scope module call_mux_data_memory $end
$var wire 32 e a [31:0] $end
$var wire 32 f b [31:0] $end
$var wire 1 5 sel $end
$var wire 32 g out [31:0] $end
$upscope $end
$scope module call_pc $end
$var wire 1 ! clk $end
$var wire 32 h d [31:0] $end
$var wire 1 " reset $end
$var reg 32 i q [31:0] $end
$upscope $end
$scope module call_shift_branch $end
$var wire 32 j imm [31:0] $end
$var reg 32 k branch_address [31:0] $end
$upscope $end
$scope module call_shift_jump $end
$var wire 4 l PC [3:0] $end
$var wire 26 m imm [25:0] $end
$var reg 32 n jump [31:0] $end
$var reg 2 o shift [1:0] $end
$upscope $end
$scope module mux_antes_del_alu $end
$var wire 32 p a [31:0] $end
$var wire 32 q b [31:0] $end
$var wire 1 # sel $end
$var wire 32 r out [31:0] $end
$upscope $end
$upscope $end
$upscope $end
$enddefinitions $end
#0
$dumpvars
bx r
b100100000100000 q
bx p
b0 o
b101001011010010000010000000 n
b1010010110100100000100000 m
b0 l
b10010000010000000 k
b100100000100000 j
b0 i
b100 h
bx g
bx f
bx e
b0 d
b10010000010000000 c
b10010000010000000 b
b1011 a
b1001 `
b1011 _
bx ^
bx ]
b0 \
b0 [
bx Z
b0 Y
b100000 X
b0 W
b100 V
b0 U
b0 T
b10010000010000000 S
b10010000010000000 R
b100100000100000 Q
b100100000100000 P
bx O
bx N
b1011 M
bz L
b1011 K
b1010 J
b1010010110100100000100000 I
b0 H
b0 G
b0 F
b0 E
b0 D
bx C
b0 B
bx A
bx @
b0 ?
0>
0=
bx <
bx ;
b1010010110100100000100000 :
09
b101001011010010000010000000 8
b0 7
b0 6
05
b0 4
13
12
b100 1
bx 0
b0 /
b10010000010000000 .
bx -
b10010000010000000 ,
bx +
bx *
b10010000010000000 )
b100100000100000 (
b1011 '
0&
0%
bz $
z#
1"
1!
$end
#1
0"
0!
#2
b11111111111111111111111111111100 )
b11111111111111111111111111111100 S
b11111111111111111111111111111100 k
b101001001111111111111111100 8
b101001001111111111111111100 n
b11111111111111111111111111111111 (
b11111111111111111111111111111111 Q
b11111111111111111111111111111111 j
b11111111111111111111111111111111 q
bx1xx1 '
bx1xx1 M
bx1xx1 a
02
x>
bx ?
bx E
bx W
x5
19
x3
b1010010011111111111111111 m
b111111 X
b1111111111111111 P
b1001 K
b11111 `
b1001 _
b1000 D
b100001010010011111111111111111 :
b100001010010011111111111111111 I
b1000 1
b1000 V
b1000 h
bx <
bx g
bx1 -
bx1 r
b101 0
b101 C
b101 Z
b101 f
b0 ,
b0 c
b1 *
b1 @
b1 O
b1 ]
b1 p
b100 +
b100 A
b100 N
b0 .
b0 R
b0 b
b100 4
b100 H
b100 T
b100 U
b100 d
b100 i
1!
#3
0!
#4
b10010000010001000 )
b10010000010001000 S
b10010000010001000 k
b1 /
b1 B
b1 Y
b11111111111111111111111111100100 <
b11111111111111111111111111100100 g
b101001011010010000010001000 8
b101001011010010000010001000 n
b100100000100010 (
b100100000100010 Q
b100100000100010 j
b100100000100010 q
b1011 '
b1011 M
b1011 a
12
0>
b0 ?
b0 E
b0 W
05
09
13
b1010010110100100000100010 m
b100010 X
b100100000100010 P
b1011 K
b1001 `
b1011 _
b0 D
b1010010110100100000100010 :
b1010010110100100000100010 I
b1100 1
b1100 V
b1100 h
b0x00x000001000x0 -
b0x00x000001000x0 r
b11111111111111111111111111100100 0
b11111111111111111111111111100100 C
b11111111111111111111111111100100 Z
b11111111111111111111111111100100 f
b10010000010010000 ,
b10010000010010000 c
b100000 *
b100000 @
b100000 O
b100000 ]
b100000 p
b10010000010010000 .
b10010000010010000 R
b10010000010010000 b
b1000 4
b1000 H
b1000 T
b1000 U
b1000 d
b1000 i
1!
#5
0!
#6
b10010000010010000 )
b10010000010010000 S
b10010000010010000 k
b10 /
b10 B
b10 Y
b101001011010010000010010000 8
b101001011010010000010010000 n
b100100000100100 (
b100100000100100 Q
b100100000100100 j
b100100000100100 q
b1010010110100100000100100 m
b100100 X
b100100000100100 P
b1010010110100100000100100 :
b1010010110100100000100100 I
b10000 1
b10000 V
b10000 h
b0 <
b0 g
b0x00x00000x00x0x -
b0x00x00000x00x0x r
b0 0
b0 C
b0 Z
b0 f
b10010000010011100 ,
b10010000010011100 c
b1 *
b1 @
b1 O
b1 ]
b1 p
b10010000010011100 .
b10010000010011100 R
b10010000010011100 b
b1100 4
b1100 H
b1100 T
b1100 U
b1100 d
b1100 i
1!
#7
0!
#8
b11111111111111111111111111111100 )
b11111111111111111111111111111100 S
b11111111111111111111111111111100 k
bx1 -
bx1 r
b101001001111111111111111100 8
b101001001111111111111111100 n
b11111111111111111111111111111111 (
b11111111111111111111111111111111 Q
b11111111111111111111111111111111 j
b11111111111111111111111111111111 q
b1001 '
b1001 M
b1001 a
b1010010011111111111111111 m
b111111 X
b1111111111111111 P
b1001 K
b11111 `
b1001 _
b1100 D
b110001010010011111111111111111 :
b110001010010011111111111111111 I
b10100 1
b10100 V
b10100 h
b1100 ,
b1100 c
b1100 .
b1100 R
b1100 b
b10000 4
b10000 H
b10000 T
b10000 U
b10000 d
b10000 i
1!
#9
0!
#10
b1101 D
b110101010010011111111111111111 :
b110101010010011111111111111111 I
b11000 1
b11000 V
b11000 h
bx1xxxxx -
bx1xxxxx r
b10000 ,
b10000 c
b100000 *
b100000 @
b100000 O
b100000 ]
b100000 p
b10000 .
b10000 R
b10000 b
b10100 4
b10100 H
b10100 T
b10100 U
b10100 d
b10100 i
1!
#11
0!
#12
b11111111111111111111111111011011 <
b11111111111111111111111111011011 g
b11111111111111111111111111011011 0
b11111111111111111111111111011011 C
b11111111111111111111111111011011 Z
b11111111111111111111111111011011 f
b10010000010011100 )
b10010000010011100 S
b10010000010011100 k
b11 /
b11 B
b11 Y
b0x00x00000100xxx -
b0x00x00000100xxx r
b101001011010010000010011100 8
b101001011010010000010011100 n
b100100000100111 (
b100100000100111 Q
b100100000100111 j
b100100000100111 q
b1011 '
b1011 M
b1011 a
b1010010110100100000100111 m
b100111 X
b100100000100111 P
b1011 K
b1001 `
b1011 _
b0 D
b1010010110100100000100111 :
b1010010110100100000100111 I
b11100 1
b11100 V
b11100 h
b10010000010110100 ,
b10010000010110100 c
b10010000010110100 .
b10010000010110100 R
b10010000010110100 b
b11000 4
b11000 H
b11000 T
b11000 U
b11000 d
b11000 i
1!
#13
0!
#14
b10010000010010100 )
b10010000010010100 S
b10010000010010100 k
b100 /
b100 B
b100 Y
b101001011010010000010010100 8
b101001011010010000010010100 n
b100100000100101 (
b100100000100101 Q
b100100000100101 j
b100100000100101 q
b1010010110100100000100101 m
b100101 X
b100100000100101 P
b1010010110100100000100101 :
b1010010110100100000100101 I
b100000 1
b100000 V
b100000 h
b101 <
b101 g
b0x00x00000x00x01 -
b0x00x00000x00x01 r
b101 0
b101 C
b101 Z
b101 f
b10010000010110000 ,
b10010000010110000 c
b1 *
b1 @
b1 O
b1 ]
b1 p
b10010000010110000 .
b10010000010110000 R
b10010000010110000 b
b11100 4
b11100 H
b11100 T
b11100 U
b11100 d
b11100 i
1!
#15
0!
#16
b11111111111111111111111111111100 )
b11111111111111111111111111111100 S
b11111111111111111111111111111100 k
bx1 -
bx1 r
bx <
bx g
b101111111111111111111100 8
b101111111111111111111100 n
b11111111111111111111111111111111 (
b11111111111111111111111111111111 Q
b11111111111111111111111111111111 j
b11111111111111111111111111111111 q
bx1111 '
bx1111 M
bx1111 a
02
x>
bx ?
bx E
bx W
x5
19
x3
b1011111111111111111111 m
b111111 X
b1111111111111111 P
b1111 K
b1 J
b11111 `
b1111 _
b10 D
b1000001011111111111111111111 :
b1000001011111111111111111111 I
b100100 1
b100100 V
b100100 h
b11100 ,
b11100 c
b11100 .
b11100 R
b11100 b
b100000 4
b100000 H
b100000 T
b100000 U
b100000 d
b100000 i
1!
#17
0!
#18
b10000000010001000 )
b10000000010001000 S
b10000000010001000 k
b10 <
b10 g
b1001010000000010001000 8
b1001010000000010001000 n
b100000000100010 (
b100000000100010 Q
b100000000100010 j
b100000000100010 q
b1000 '
b1000 M
b1000 a
12
1>
b1 ?
b1 E
b1 W
05
09
03
b10010100000000100010 m
b100010 X
b100000000100010 P
b1001 K
b0 J
b1000 `
b1001 _
b1111 D
b111100000010010100000000100010 :
b111100000010010100000000100010 I
b101000 1
b101000 V
b101000 h
b0x00000000x000x0 -
b0x00000000x000x0 r
b10 0
b10 C
b10 Z
b10 f
b10000000010101100 ,
b10000000010101100 c
b0 *
b0 @
b0 O
b0 ]
b0 p
b10 +
b10 A
b10 N
b10000000010101100 .
b10000000010101100 R
b10000000010101100 b
b100100 4
b100100 H
b100100 T
b100100 U
b100100 d
b100100 i
1!
#19
0!
#20
b0 )
b0 S
b0 k
b100101010000000000000000000 8
b100101010000000000000000000 n
b0 (
b0 Q
b0 j
b0 q
b0 '
b0 M
b0 a
b1001010100000000000000000 m
b0 X
b0 P
b1010 K
b1001 J
b0 `
b1010 _
b100 D
b10001001010100000000000000000 :
b10001001010100000000000000000 I
b101100 1
b101100 V
b101100 h
b100010 <
b100010 g
b0x00000 -
b0x00000 r
b100010 0
b100010 C
b100010 Z
b100010 f
b101000 ,
b101000 c
b100000 *
b100000 @
b100000 O
b100000 ]
b100000 p
b101000 .
b101000 R
b101000 b
b101000 4
b101000 H
b101000 T
b101000 U
b101000 d
b101000 i
1!
#21
0!
#22
b101 D
b10101001010100000000000000000 :
b10101001010100000000000000000 I
b110000 1
b110000 V
b110000 h
b100100 <
b100100 g
b0x00 -
b0x00 r
b100100 0
b100100 C
b100100 Z
b100100 f
b101100 ,
b101100 c
b100 *
b100 @
b100 O
b100 ]
b100 p
b100000 +
b100000 A
b100000 N
b101100 .
b101100 R
b101100 b
b101100 4
b101100 H
b101100 T
b101100 U
b101100 d
b101100 i
1!
#23
0!
#24
b100100001000000000000000000 8
b100100001000000000000000000 n
b1001000010000000000000000 m
b1 K
b1 _
b1 D
b101001000010000000000000000 :
b101001000010000000000000000 I
b110100 1
b110100 V
b110100 h
b110000 ,
b110000 c
b110000 .
b110000 R
b110000 b
b110000 4
b110000 H
b110000 T
b110000 U
b110000 d
b110000 i
1!
#25
0!
#26
b101001001000000000000000000 8
b101001001000000000000000000 n
b1010010010000000000000000 m
b1001 K
b1010 J
b1001 _
b1010 D
b101001010010010000000000000000 :
b101001010010010000000000000000 I
b111000 1
b111000 V
b111000 h
b100010 <
b100010 g
b0x0 -
b0x0 r
b100010 0
b100010 C
b100010 Z
b100010 f
b110100 ,
b110100 c
b10 *
b10 @
b10 O
b10 ]
b10 p
b110100 .
b110100 R
b110100 b
b110100 4
b110100 H
b110100 T
b110100 U
b110100 d
b110100 i
1!
#27
0!
#28
b10010000010101000 )
b10010000010101000 S
b10010000010101000 k
b101 /
b101 B
b101 Y
b101001011010010000010101000 8
b101001011010010000010101000 n
b100100000101010 (
b100100000101010 Q
b100100000101010 j
b100100000101010 q
b1011 '
b1011 M
b1011 a
0>
b0 ?
b0 E
b0 W
13
b1010010110100100000101010 m
b101010 X
b100100000101010 P
b1011 K
b1001 `
b1011 _
b0 D
b1010010110100100000101010 :
b1010010110100100000101010 I
b111100 1
b111100 V
b111100 h
b0 <
b0 g
b0x00x0000010x0x0 -
b0x00x0000010x0x0 r
b0 0
b0 C
b0 Z
b0 f
b10010000011100000 ,
b10010000011100000 c
b100000 *
b100000 @
b100000 O
b100000 ]
b100000 p
b100 +
b100 A
b100 N
b10010000011100000 .
b10010000011100000 R
b10010000011100000 b
b111000 4
b111000 H
b111000 T
b111000 U
b111000 d
b111000 i
1!
#29
0!
#30
b0 )
b0 S
b0 k
b1001010001000000000000000000 8
b1001010001000000000000000000 n
b0 (
b0 Q
b0 j
b0 q
b10001 '
b10001 M
b10001 a
1>
b1 ?
b1 E
b1 W
15
b1 7
b1 F
b1 [
b10010100010000000000000000 m
b0 X
b0 P
b10001 K
b10010 J
b0 `
b10001 _
b100011 D
b10001110010100010000000000000000 :
b10001110010100010000000000000000 I
b1000000 1
b1000000 V
b1000000 h
bx <
bx g
b0x -
b0x r
b1 0
b1 C
b1 Z
b1 f
b111100 ,
b111100 c
b1 *
b1 @
b1 O
b1 ]
b1 p
b111100 .
b111100 R
b111100 b
b111100 4
b111100 H
b111100 T
b111100 U
b111100 d
b111100 i
1!
#31
0!
#32
bx000x '
bx000x M
bx000x a
02
b1 6
b1 G
b1 \
x5
b0 7
b0 F
b0 [
x3
b101011 D
b10101110010100010000000000000000 :
b10101110010100010000000000000000 I
b1000100 1
b1000100 V
b1000100 h
b0 -
b0 r
b0 0
b0 C
b0 Z
b0 f
b0x00000000 <
b0x00000000 g
b1000000 ,
b1000000 c
b0 *
b0 @
b0 O
b0 ]
b0 p
b0 +
b0 A
b0 N
b100000000 ;
b100000000 ^
b100000000 e
b1000000 .
b1000000 R
b1000000 b
b1000000 4
b1000000 H
b1000000 T
b1000000 U
b1000000 d
b1000000 i
1!
#33
0!
#34
b10 6
b10 G
b10 \
b101000 D
b10100010010100010000000000000000 :
b10100010010100010000000000000000 I
b1001000 1
b1001000 V
b1001000 h
b1000100 ,
b1000100 c
b1000100 .
b1000100 R
b1000100 b
b1000100 4
b1000100 H
b1000100 T
b1000100 U
b1000100 d
b1000100 i
1!
#35
0!
#36
b100000000 <
b100000000 g
b10001 '
b10001 M
b10001 a
12
b0 6
b0 G
b0 \
15
b10 7
b10 F
b10 [
13
b100000 D
b10000010010100010000000000000000 :
b10000010010100010000000000000000 I
b1001100 1
b1001100 V
b1001100 h
b1001000 ,
b1001000 c
b1001000 .
b1001000 R
b1001000 b
b1001000 4
b1001000 H
b1001000 T
b1001000 U
b1001000 d
b1001000 i
1!
#37
0!
#38
bx000x '
bx000x M
bx000x a
02
b11 6
b11 G
b11 \
x5
b0 7
b0 F
b0 [
x3
b101001 D
b10100110010100010000000000000000 :
b10100110010100010000000000000000 I
b1010000 1
b1010000 V
b1010000 h
bx00000000 <
bx00000000 g
b1001100 ,
b1001100 c
b11111111111111111111111100000000 ;
b11111111111111111111111100000000 ^
b11111111111111111111111100000000 e
b1001100 .
b1001100 R
b1001100 b
b1001100 4
b1001100 H
b1001100 T
b1001100 U
b1001100 d
b1001100 i
1!
#39
0!
#40
b11111111111111111111111100000000 <
b11111111111111111111111100000000 g
b10001 '
b10001 M
b10001 a
12
b0 6
b0 G
b0 \
15
b11 7
b11 F
b11 [
13
b100001 D
b10000110010100010000000000000000 :
b10000110010100010000000000000000 I
b1010100 1
b1010100 V
b1010100 h
b1010000 ,
b1010000 c
b1010000 .
b1010000 R
b1010000 b
b1010000 4
b1010000 H
b1010000 T
b1010000 U
b1010000 d
b1010000 i
1!
#41
0!
#42
b0 8
b0 n
b0 '
b0 M
b0 a
02
x>
bx ?
bx E
bx W
x5
b0 7
b0 F
b0 [
x3
b0 m
b0 K
b0 J
b0 _
b11 D
b1100000000000000000000000000 :
b1100000000000000000000000000 I
b1011000 1
b1011000 V
b1011000 h
b0xxxxxxxx00000000 <
b0xxxxxxxx00000000 g
b1010100 ,
b1010100 c
b1111111100000000 ;
b1111111100000000 ^
b1111111100000000 e
b1010100 .
b1010100 R
b1010100 b
b1010100 4
b1010100 H
b1010100 T
b1010100 U
b1010100 d
b1010100 i
1!
